,Stock 1,Stock 2,Stock 3
0,1.0,1.0,1.0
1,0.991309433574857,1.0201858844851186,1.0106535022654226
2,1.0033098925907522,1.0340354260598907,0.9895451630162796
3,1.0011625871060625,1.0081951810881897,0.988520250311941
4,1.0235052314223858,1.0164696385195517,0.9885421646401072
5,1.033722292885252,1.0381227457555895,0.9982588812492399
6,1.0437866143640067,1.039207637726845,0.9915801669112011
7,1.0374241684873589,1.020096355601594,0.9730952679869288
8,1.0113027475415224,1.0079780818303852,0.9815322038793493
9,1.0219832578296995,0.9910533277484526,0.9864383125925936
10,1.0122855848143821,0.9863091580266805,0.9639221434802733
11,1.004240505695711,1.0129394973757888,0.9537305137579171
12,0.997624468206022,1.0033889388611292,0.9523507747274116
13,1.0144849944870158,1.0211434083022761,0.97367757555484
14,1.0141891060579884,1.0110643162307327,0.9741704180490879
15,1.008638281695996,1.0142544288137783,0.9645341797313813
16,0.9901800878443405,1.0225889759548323,0.9596011715048584
17,0.9945657376088832,1.0206883410302108,0.9848606471697173
18,0.9866631269989331,1.0056487889465484,0.968910789500557
19,1.0053375085419254,1.0117076184164318,0.9913133031198011
20,1.047144944010512,1.0097620294821679,0.9804846083596486
21,1.0455763971397372,1.040739635009368,0.9657727315774178
22,1.0360890499123028,1.0326141403350904,0.9755707526974023
23,1.023149235765082,1.0142032981729936,0.9812492745764806
24,1.020734053967566,0.9529098928423552,0.9979006954825191
25,1.0285278843260448,0.9626905143553235,1.000106333207471
26,1.0281786241206818,0.9743614934523919,1.0045463293886405
27,1.0268976234848668,1.0123387307710816,1.0000054331317643
28,1.0177001260233731,1.0436530967608113,1.021616463681156
29,1.039374237227249,1.0464381026556346,1.022918755324784
30,1.0344514328823455,1.0573798515702861,1.0132767710931314
31,1.0445539306295992,1.031322983486208,1.0306236532085935
32,1.036320195809455,1.0371223812368398,1.0362150052626726
33,1.033623866880813,1.0152607141211751,1.0415538106415478
34,1.051668637886615,1.0130100049559108,1.0416740039334906
35,1.0675096290666146,1.0331563376717774,1.039080701787907
36,1.0689019676110474,1.0324641911853387,1.0557101134041404
37,1.0684419199080248,1.049011884049903,1.0578235020938174
38,1.0786925767125164,1.0787181743636174,1.0434967074857193
39,1.0607525684926637,1.0617203485821725,1.0370954153484555
40,1.0447819929469506,1.0641919151390866,1.0515654887651638
41,1.0537651959791965,1.0519556356204265,1.034712992176181
42,1.0328236346931148,1.0696820923097865,1.040784791091777
43,1.0309710125268423,1.0668148152868033,1.0556843122028352
44,1.0451958230746614,1.084609328974601,1.0425371206436125
45,1.0473550481169969,1.0517171344010605,1.0381711494195462
46,1.0542916212995719,1.0549531124519302,1.0474630307672055
47,1.0453210844109007,1.0470617025459823,1.0387560581247717
48,1.0489002494097341,1.046372216753219,1.0321360287095156
49,1.0288203762595654,1.0514848296247754,1.009873523545801
50,1.035261975758663,1.0395016127969678,1.0049341659624302
51,1.0561764951758452,1.0515987747906093,0.996712110724606
52,1.0531311492044226,1.0689965889193547,0.9918577243871841
53,1.051603067871785,1.0459070738141496,1.0062944651871275
54,1.0680418456594263,1.0595354101291203,1.0308441603551084
55,1.0849438822886228,1.076793171114978,1.0159488041376434
56,1.0893617191683391,1.0926511495411964,1.006767093072778
57,1.0919900052281717,1.0896414275333552,1.0251349692680565
58,1.0837208771891087,1.0862098002138383,1.034469148652887
59,1.0928806865302292,1.0560571240357166,1.0164967886757164
60,1.1087758876048666,1.0676603626887387,0.9823172104903758
61,1.0583582484824707,1.0757764295455978,0.9739745235460936
62,1.0514877229508814,1.0395249766111996,1.0228020368214534
63,1.1018120109557863,1.0329901554674834,1.0227363854300102
64,1.0971265962612717,1.0640650967181478,0.9874851089927335
65,1.0877769332805856,1.0719118318938274,0.9980546363981633
66,1.1027176296694319,1.0666666175486004,1.011035091509152
67,1.1117987106290987,1.086793682090456,1.0091609475610785
68,1.111313915859753,1.116378653290351,0.9793006157430016
69,1.0641690757504816,1.1123862791728598,0.9569656153750385
70,1.0411575542507499,1.0644190951120018,1.0028644127403856
71,1.0645634504847221,1.023449421583633,1.0321527506565245
72,1.0652245094360886,1.0435550835333605,1.0110598599229481
73,1.0672402983966849,1.0190342031051276,1.0351536728354715
74,1.0687662947884817,1.0244362489579035,1.0307329931531346
75,1.0728566298879612,0.9937965457778475,1.0129106937781598
76,1.0675010483405856,0.9926111174842923,0.9984751532929794
77,1.063622541226923,0.9786481791682748,1.0175499844556786
78,1.0835375705062111,0.9872421450037381,1.0554186044083158
79,1.0970534916370087,1.0053829318226508,1.04604341810326
80,1.0848210010209158,1.0326340555429647,1.0615117145099537
81,1.1041061219142811,1.0466235787475018,1.0723871186299405
82,1.1016533124471706,1.0704947870393011,1.0529328430189995
83,1.0729580674802832,1.0795575138096627,1.0810098233748837
84,1.0956913070888217,1.0691341273354498,1.0872610247735746
85,1.1033534640657081,1.0953197418999943,1.0921179183013603
86,1.0970086737536342,1.0553150676374552,1.0836443528448318
87,1.095248823844262,1.0478143691541209,1.0835980321594434
88,1.0831227109777966,1.0607925534766047,1.0994643754778466
89,1.1018009183739876,1.048599467175174,1.0893166311145495
90,1.096712776880384,1.0565189355424434,1.0700788344025
91,1.081300727060218,1.0595934665322708,1.0577791269287076
92,1.0595094683553739,1.007030884921012,1.0692974650441724
93,1.0780627237912075,0.9996372711431865,1.0933430758526748
94,1.0756747555415753,0.9901330139118738,1.0700380887567156
95,1.0702660653877516,0.9821092045508809,1.0755779181109597
96,1.0622461127502039,0.9649047323819749,1.0670734962936765
97,1.0291286728397648,0.9841669399167909,1.0413158571120904
98,1.0006539746151284,0.992638442130146,1.0487743184386582
99,1.0036648282265956,0.9824667052331827,1.0642256763904812
100,1.0295907505115323,1.0116411888225074,1.0579345745796807
101,1.0336074052221853,1.0093599662317672,1.0373185088958508
102,1.0304050707205012,1.0444009735755821,1.0333567538074893
103,1.003190339100824,1.036773388638654,1.0378985472588016
104,1.0098065631067592,1.0106972148919071,1.0546193021208186
105,1.023210611850688,0.9842628727698856,1.0568587158096867
106,1.0234193891451229,0.980622569157417,1.0468049327242368
107,1.0126593784512425,0.9640443388528364,1.0545821539891846
108,1.009194693304015,0.9707504119651827,1.0638444817483044
109,1.0317700656713074,0.9583201698035065,1.0367194349723419
110,1.0336105953566606,0.9676729021440212,1.0131343592353748
111,1.011894296629794,0.9764001040088663,1.044728075579314
112,1.0337057456088015,0.9702738721744092,1.048139148663667
113,1.0302852817364347,0.9589432598958663,1.0072349249907666
114,1.0069528269912185,0.967813287212267,1.0222389789318627
115,1.0219107406551087,0.9611788089104027,1.0342667026369476
116,1.0388417731004636,0.9484749916497022,1.0263262499403973
117,1.0284882796823087,0.9508965310365632,1.040113927895384
118,0.9982108791563494,0.9637042494114989,1.0398843969270368
119,1.009720319048777,0.9781719589486744,1.061972717819607
120,1.0189472892864477,0.9641687057864503,1.0465552427180236
121,1.0253800842612852,0.9633003035484402,1.05156271000516
122,1.0286199440757016,0.9896915415783955,1.0341999992195772
123,1.0045596460065394,0.9826684266196933,1.060858684593539
124,1.034584599478827,0.9722385212027933,1.0790037831265045
125,1.061271363535341,1.0152998552850712,1.0558942015842405
126,1.0415075698882141,1.0352387336798763,1.0360218206508707
127,1.0369821466282945,1.0412076220251687,1.042740442384959
128,1.0459986449680316,1.0584724996376922,1.0546610372134282
129,1.0531677483216981,1.0512618848187656,1.0425416558560958
130,1.021794083592832,1.0376455473142292,1.0527196742636875
131,1.0441957258274783,1.0192273275009796,1.0757279212954025
132,1.0695766346122229,1.0407650651031852,1.0514430986462653
133,1.0605391195523932,1.0421040481898969,1.0326259332269383
134,1.05140212041186,1.0374804744985464,1.0387900888159756
135,1.0525038444105217,1.0476910782111324,1.0329346607028576
136,1.0528588521458626,1.075599579555958,1.021152337050967
137,1.0526904723173096,1.0725579048306295,1.0137113304266914
138,1.0528444365316771,1.0738672544542678,1.0001068345882076
139,1.050330348050099,1.0511923597080364,0.995308930352664
140,1.0549057557093726,1.0321926566781945,0.9796985763500928
141,1.0283235825685944,1.0571474130903815,0.98635109477216
142,1.031801985664649,1.046214949173742,1.003690334002191
143,1.0382736667941597,1.0867063414698441,1.0038929204257432
144,1.0526001945923293,1.0666084747628588,0.9760747622539336
145,1.0505582673050835,1.052205560958311,0.9677875432918662
146,1.0509394545050803,1.0500765804030587,0.9794869714216524
147,1.06457644052579,1.0547569063989946,0.997828436864229
148,1.085710190500572,1.0789113573752611,0.9976951547590666
149,1.0907665084826494,1.089257328119729,0.9827380241008227
150,1.0815805975937924,1.1212535055989874,0.9598897111308199
151,1.0756417089291002,1.1225474388601226,0.9472804566603373
152,1.0565452127463517,1.1317323993090327,0.9367039819307257
153,1.0409884358776347,1.1222615500733788,0.9321566150879053
154,1.0359375414710141,1.1342255342927217,0.9594637215368215
155,1.0552312867790283,1.1078752027330148,0.9920189946797402
156,1.0785664010667755,1.1163043570256337,0.9994210839547298
157,1.0528449243016498,1.1462822478151629,1.0078753593365681
158,1.0266746179404749,1.1574516804686907,1.0109234716899314
159,1.032998584635424,1.1227747027179535,1.008695566487463
160,1.03797603581984,1.1340145195511075,1.0248251789005298
161,1.0421915344490789,1.1360742061925253,1.0223364627039784
162,1.052999100231214,1.1257270342220873,0.9862682885309204
163,1.024499981334088,1.1446771970835925,0.9602092754141777
164,1.0078328984461946,1.1118532613816925,0.9565953720868937
165,1.0127452509209667,1.0700159471412032,0.9754349293004017
166,1.0087230088245462,1.0778441491113298,0.9840407662472657
167,1.0342509808036875,1.054532743667543,0.9901407995510673
168,1.0544989686260426,1.08830011357607,1.0059560599174528
169,1.067482673260747,1.0684185280026344,1.0040534791719637
170,1.0796904766849893,1.0720734895589035,1.004471137856609
171,1.0910510158744744,1.0835992336196594,0.9896675970011404
172,1.0762811332543742,1.0719870977263504,0.9655882277968186
173,1.0688337206875673,1.0910062863015482,0.985930704447989
174,1.079590149203769,1.097091370235582,0.9904849793745065
175,1.0788958916265075,1.0768976559901156,0.9829698776954363
176,1.090176111435102,1.0807321376135948,0.9887771052613455
177,1.0924587352506,1.0463000668893565,0.9768393185943371
178,1.0850529208538429,1.0566195570191812,1.0102118454262596
179,1.0953863826410752,1.0285906220540684,0.9925020921771792
180,1.0620523983257368,0.9954910843601736,0.9818597932374572
181,1.051247060403871,0.9730353850142186,1.0069419282702676
182,1.0527682779058516,0.964405565961474,1.0190963565831823
183,1.050272323991481,0.9746761172298501,1.0118983021232475
184,1.0397619925871016,0.9745470972287887,1.0047475578494864
185,1.0341406826137993,1.0035300038057953,1.015821113831873
186,1.0476123553899241,0.9998300905672834,1.0114256979514495
187,1.0397981555869564,1.011481367958928,0.9686331919000654
188,1.0111711514953572,1.0059851354974099,0.9505503940843372
189,1.0039002610486136,0.9787844305185198,0.9735031702044873
190,0.9925627863633695,0.9676549357739113,0.9861457595964138
191,0.9986005590660203,0.9513745309696884,0.9894456139732445
192,1.0076581840831913,0.9626995468792503,0.9895596408434232
193,0.9991320415402787,0.9958286681964335,0.9962401374174883
194,1.0027705408987708,0.9897323816344575,0.9998510440129765
195,1.0089261174367519,0.9581948078640015,1.006925048433206
196,1.0114201035303527,0.9522537519632165,0.9973868008700414
197,1.0032027352121446,0.9163285152403594,1.0063198112529388
198,0.9875169638735173,0.8993717860241267,1.0115351052539057
199,1.0033829830680465,0.914693486566069,1.0301351620379626
200,1.0110698035856034,0.9223426192496291,1.0007999663215719
201,0.9945936686317397,0.9016627635731026,0.9845347939079482
202,0.9839927359981349,0.878893631442268,0.9885454601575812
203,0.9973001409302463,0.9185248771486481,0.9926644642864965
204,0.9900217174228345,0.898941132859829,0.9785307039224568
205,0.9806194666472209,0.9245263986828642,0.9641211879815499
206,0.9601658303230534,0.9021577904668533,0.9611604710787711
207,0.9840908640193231,0.899348240410362,0.9928387110171121
208,0.9988758564094286,0.9130208981698692,0.9788950515458748
209,0.9938969833733677,0.8918658656937626,0.9717249616759189
210,0.9999217470242284,0.8616168526902439,0.9603947266465539
211,1.0182681058873304,0.8553159837350903,0.9407950339826007
212,1.031198679518117,0.8733920305222491,0.964453845773124
213,1.0560625189053243,0.8781847808963107,0.9581594006818306
214,1.0689849222340437,0.8923244041720526,0.9420634097909779
215,1.0780143550826773,0.8886226766325032,0.9203421571150627
216,1.0397315070163198,0.9018772145389433,0.9060778437944098
217,1.0218923936500215,0.8896524488005075,0.9268528233246707
218,1.039011118877343,0.8641609799767941,0.9230287123961793
219,1.03285920580126,0.8507591433090685,0.923547590988635
220,1.0652149832652498,0.8955554772851702,0.9477732233010734
221,1.0803534477751753,0.927723319994706,0.9264125122448861
222,1.0328114010668763,0.9476814394768633,0.9159396400825475
223,1.016183926686025,0.94039565092837,0.9316113567896396
224,1.0579039846157974,0.917052775692576,0.931408663493912
225,1.0666041773609887,0.9087703413747953,0.9015637798153499
226,1.0483154041923883,0.8931561249232095,0.9033543732269604
227,1.030754591447049,0.9016242479430044,0.9134849702467487
228,1.0454381999260995,0.9010023398485816,0.9129119148900181
229,1.0259909205663043,0.9099957765075979,0.9125709314645498
230,1.0206865687863316,0.9044181679683543,0.9379605311221192
231,1.0369443709482917,0.8894833783536833,0.9484808588347934
232,1.0653010347300482,0.9004593950581876,0.9193391219509743
233,1.0110439709699652,0.88967333559723,0.898547134625334
234,1.0006642177432936,0.8679524646603118,0.8840336411792707
235,1.0137560046158265,0.8563079286815665,0.8858213024731264
236,1.0103696941563454,0.867872472369509,0.8623352048143287
237,0.9844628787355945,0.8601201950001813,0.8451560981785885
238,0.9711303951974101,0.8619270051585566,0.857585133192578
239,0.9845712343763006,0.8788412861875129,0.8479476386903181
240,0.9609801653169828,0.9004879406820577,0.8361299912836605
241,0.9610395202745059,0.8767242584835159,0.8528376707681286
242,0.9742059463936243,0.9031471689489742,0.8451818448532581
243,0.9873553567718081,0.9239128285990739,0.8292734464610694
244,0.9722473532570433,0.9402667927310837,0.8191070595928663
245,0.9613608237125948,0.9457385382262457,0.8282274130247711
246,0.9650240234655404,0.944174906825582,0.8228160835925552
247,0.9438141926259176,0.9587172491306303,0.8234235353337394
248,0.9496326212928508,0.983175359240707,0.8301086709113038
249,0.9647693708495794,0.967900122639485,0.8318220297796937
250,0.9499269964108578,1.0152989117255338,0.8342394157335193
251,0.9605024568820067,1.0136360313836132,0.8550345055797357
252,0.9763137538662041,1.000243216077567,0.8678136630173157
253,0.9834306573836417,1.0221670443870632,0.8413658144937259
254,0.960788205484313,1.0090084416438316,0.8543593727539299
255,0.9940116556661086,0.9904240358866685,0.8529852794511218
256,0.999219677673712,0.9850135884567098,0.848095140730364
257,0.9608406327568213,0.9873322815089104,0.8323890175320141
258,0.9697655535988063,0.9579883493102826,0.851135068427274
259,0.9939604811316862,0.9774443509932513,0.8513493564885145
260,0.9897828404038814,0.974345752326471,0.824644931054751
261,0.9766409674779606,0.9787316727261227,0.8221628338209802
262,0.9818463266290349,0.9802452556665413,0.8312317745111946
263,0.9967988287843587,0.97961528894082,0.8462926605763483
264,1.0350153470787034,0.9814186908237185,0.8467727612959065
265,1.0268244649680014,1.0003939652451883,0.8308754299397951
266,1.0302316439147312,1.041921593189367,0.8166635885417377
267,1.029729486711907,1.059556472113714,0.8032817132099995
268,1.0218183239008871,1.0571887048346431,0.7967666615531499
269,1.0135772453393554,1.0486150139923027,0.7902945938131127
270,1.003481191795874,1.0107132786683426,0.7853500047360069
271,0.9960880865484811,0.978354970654404,0.7975225082043604
272,0.9864815048272947,0.9565075591309257,0.8071905407298218
273,1.0037954814749137,0.9247817689471493,0.8177270108687117
274,1.0202767246810704,0.944205076815185,0.7756159910751663
275,0.9870902437195114,0.9438831340883425,0.7732584473868599
276,0.9779030120094397,0.9253644807036497,0.7858730721787062
277,0.9798699623738109,0.92995618756861,0.7788870794393322
278,0.9775602649003579,0.9461839672730793,0.7761033531771461
279,0.9791168070408691,0.9373919184438808,0.7764621994903431
280,0.9807003291563363,0.9712195596097325,0.7761905186445311
281,0.9767752557937799,0.9672259766321846,0.7778324509440719
282,0.9865976330294194,0.9635522583196001,0.7996169961798654
283,1.0114751038902798,0.9780996224418013,0.8085502514006266
284,1.0007667859240474,0.9644484827813193,0.8088320529756168
285,0.9977657691295607,0.95211044534709,0.8333189819874767
286,1.0265375265696597,0.9414823035396302,0.8318348307706763
287,1.0303796178958047,0.9751590250389289,0.8209070862838822
288,1.0266941237179794,0.9759142060589936,0.8228952612230785
289,1.0356395874617965,0.9483292223932489,0.8252393325940443
290,1.044242572566753,0.9124276436103713,0.8195358330356652
291,1.0528206171488075,0.9325153177173519,0.8232111091206955
292,1.076550274469115,0.9608476193789819,0.8150002271317711
293,1.0695558660131146,0.9531262973569851,0.7910288056907341
294,1.0458891902157998,0.9656009225748182,0.8162837073089174
295,1.051706929223403,0.9737061833065682,0.8391413238179949
296,1.0459381072973855,0.976801780999084,0.8352481507425217
297,1.044203717294678,0.9846056276694842,0.8085617640707391
298,1.0342898419197486,0.962536005207101,0.7970074699686808
299,1.0395528523457644,0.9677288624783981,0.7997492704738753
300,1.041773309210495,0.935331871391502,0.8005870057821765
301,1.0199041492682734,0.9369731843490855,0.8042441350091237
302,1.0309669536701849,0.9390698737270453,0.8034961881926567
303,1.0505344362651812,0.9557301283124375,0.7892129546491826
304,1.0375495439859412,0.9548941859698942,0.7882905885133679
305,1.0448501792516434,0.9552980032032203,0.7887572376670015
306,1.0339930344741373,0.9653047461827455,0.7930090716000686
307,1.037884634477203,0.9422260729792461,0.7750612141242833
308,1.0307656978381357,0.9372431314797716,0.7799744566564838
309,1.0234442130874797,0.9404626231150662,0.7914374035559515
310,1.025609793744701,0.950213780471112,0.809362215321867
311,1.020517710349357,0.9336979303250192,0.7943569806330686
312,1.0000860167920231,0.9078528526748961,0.8166727829111124
313,1.0118010937627895,0.8959161388090773,0.8320738962719535
314,1.0193847346974982,0.9071428185136544,0.8164069419233466
315,1.0149043605183086,0.9198040052784257,0.8058263236966431
316,1.0101144161513544,0.9327893940459571,0.8116152748224529
317,0.9992099328602174,0.9338098238971847,0.8001224654213385
318,0.9969053090275783,0.9240197337141431,0.8009901345362964
319,0.9957028007773616,0.9266987399974338,0.8057976426517822
320,0.9973903808264822,0.9404395309075919,0.8099615022948188
321,1.0048885483358663,0.9381721214125075,0.8078016204973986
322,1.0063902240389446,0.9245577979837872,0.8068850414436105
323,1.0357305060674815,0.9469707830797089,0.8085448859021094
324,1.0439359318738266,0.9342029095009766,0.7841625155697047
325,1.0175437922681765,0.9525945326302732,0.7920307178546837
326,1.0125104692133573,0.9415090450713082,0.7946416232805118
327,1.0158862919552127,0.9301982916191233,0.7822420693824025
328,1.0027765593029707,0.9427994758122163,0.7739721234062782
329,1.0232850660934312,0.9556792407677022,0.7711567616341741
330,1.0100507071032616,0.9613877258949487,0.7666020856106749
331,1.0206100788717989,0.9285847445448475,0.7801819562721347
332,1.0296525602687665,0.9464274968548719,0.7787856615058879
333,1.0631780559080788,0.9511847603946464,0.7811220461574041
334,1.0761582183792942,0.9893406642585624,0.7493877638609299
335,1.0663291835831499,1.004145025802968,0.7609850870186855
336,1.0535270904311007,0.9996012116144904,0.7589535417636328
337,1.0506800091243387,1.0022123151955935,0.7905365432348741
338,1.0677524811878198,0.9785202052358355,0.79581268525388
339,1.0857865035431684,0.98361140804236,0.7907760382847131
340,1.0983944355901007,0.985951799788084,0.765402285781274
341,1.0777982541575981,1.0033724146461822,0.7445251204243429
342,1.083822836209568,1.0341321208057026,0.7433933996926118
343,1.0765828764553997,1.0411328776039819,0.7578513400577072
344,1.1026923662153163,1.0294440456753213,0.7888989868996137
345,1.134231311100225,1.0167971833457172,0.7776039353524203
346,1.1056167565279633,1.0337369598533641,0.7626992523559681
347,1.0987193448482933,1.0399823486199662,0.7782363996122689
348,1.1101360704004672,1.0490839440843305,0.7884100245885416
349,1.11633488408891,1.0667796206018305,0.7801245706634063
350,1.0903874988024431,1.063271274321751,0.7822438388384512
351,1.0995380600826237,1.0752026028963015,0.7962073464579803
352,1.1085532096269946,1.0762768008649561,0.791581094099092
353,1.102121416692463,1.101464546476707,0.7833154164824272
354,1.08244046060334,1.1041998057365447,0.785989842617708
355,1.0593525643686859,1.0797955840611217,0.8031487910950353
356,1.0781051912189366,1.062071844121738,0.8248924566520347
357,1.0823349182425466,1.0761469828762877,0.8340505156054953
358,1.0815441946771256,1.0884677374657132,0.8501725759640597
359,1.0763267611162333,1.076684961453201,0.8551925982067298
360,1.0710819145468726,1.083021237735816,0.8786430048043765
361,1.0757275808725375,1.052630604528318,0.8910365174369953
362,1.0699039378139898,1.04866171825506,0.8780634986128089
363,1.0595728551654484,1.0601499551397688,0.8619130068792494
364,1.0361236614272296,1.0454856859544313,0.85498234570457
365,1.0054913460313029,0.9864066314350552,0.8821722469345492
366,1.0351000904551508,0.9430214465071823,0.9016989217701986
367,1.0648270784345344,0.9201856711701084,0.8853905096137511
368,1.0637701382391196,0.9316481263298595,0.9122427922877028
369,1.0617785505438193,0.9183645872405093,0.9083439795661856
370,1.053327884781136,0.9099221779626431,0.9101740126168372
371,1.0806833351167398,0.9015254950652077,0.9178114045775781
372,1.1100366845003915,0.9149553605816082,0.9134961832466734
373,1.079897966163371,0.9396128810377988,0.91348405767043
374,1.0767823759966024,0.9076082407777893,0.9419765664020392
375,1.0740727009274444,0.9117852773027901,0.9390441365126835
376,1.0786319957643649,0.9167590760818499,0.9342588315955661
377,1.080947544867259,0.93892284737165,0.9367974353471561
378,1.0594188123444674,0.933059168925131,0.9466105791399231
379,1.035681042131183,0.9170235419843159,0.9627847269612528
380,1.07556634992018,0.9215534461720345,0.9551543816656562
381,1.0723760949255945,0.9254032655383638,0.9654833964113777
382,1.0799368395379572,0.9230376538038014,0.9662339668810905
383,1.0886854930030203,0.920721285462689,0.985450076884775
384,1.0992290904574722,0.8882319382636074,0.9611150107335473
385,1.113121783276582,0.8817671095745849,0.9569000646613378
386,1.1059374871508383,0.9342808868315987,0.9366392621878319
387,1.1173634956953693,0.9089861993040267,0.943778293579332
388,1.1326072452596299,0.9214888083760008,0.9395464984201949
389,1.1500090886546885,0.911524167029475,0.9184082582496848
390,1.1446276852434862,0.9136295599792515,0.9149234615127683
391,1.1487343225503845,0.9080694626435306,0.9352589314538783
392,1.1697736919500903,0.925435789205473,0.927245509703879
393,1.1688389014675211,0.9338247179668551,0.9209545576594679
394,1.1721967238650537,0.910783208071942,0.9251620445443026
395,1.1778041166600937,0.9334233109211352,0.9172855134614626
396,1.1746394398591475,0.9319253224952171,0.9148633070106328
397,1.1648696659961466,0.9146155321524357,0.927678133523319
398,1.1710027418390359,0.9133278911469062,0.926521918508513
399,1.1549215681911136,0.9111475321414394,0.9280461758081197
400,1.1876165900162456,0.9080260504649741,0.9610038673151909
401,1.2149952458492739,0.9322350459199763,0.9302175604745984
402,1.2168949111650749,0.9523925621053996,0.9027626632299299
403,1.209789360082436,0.9534845796672722,0.904222955995891
404,1.1847597097540294,0.9336846560631055,0.8957330347375055
405,1.192541042035973,0.9093417438451497,0.9278559813764535
406,1.2396573706837355,0.8986959892548566,0.9422668147906298
407,1.2407651265578035,0.9165291558714356,0.9257284467694109
408,1.2108518894799187,0.9274957064269383,0.9277877251225549
409,1.186942117344559,0.9063297688128352,0.9243932597842434
410,1.1847997818183058,0.9102467330584516,0.9285382242245339
411,1.1895894680063048,0.9168238022486255,0.9314728934258003
412,1.203557501261317,0.9123403555398927,0.9296924798856245
413,1.1941043913853202,0.941397099206129,0.9448499647143037
414,1.1895555448328954,0.9643361211536995,0.9422017859581662
415,1.1625285238085319,0.9722138029312536,0.9489608740417467
416,1.155797007278524,0.9477908395633258,0.9516823450743739
417,1.156279713284151,0.9735806325362822,0.9280222581592437
418,1.1644395374874612,0.9887219041828057,0.9275709228031762
419,1.1794014645529338,0.9764359292672475,0.9298653201267828
420,1.1897580755199402,0.9753529403398761,0.9082368278727834
421,1.2049294867528775,0.9756553591780287,0.8941745956226745
422,1.1889099863095607,0.9927645715904294,0.8730473411255786
423,1.1633759433970239,0.9895090358232538,0.8584580362718305
424,1.149887030378956,0.991976690414166,0.8728488971296264
425,1.155681597984324,0.9894733670085955,0.881741121040031
426,1.1528814618031542,0.990146063168365,0.8851160234276727
427,1.1433306479763559,0.9760165403696359,0.8915383404509419
428,1.1678482486866506,0.9763675705062239,0.8994527420104719
429,1.1783701195076814,0.9614430053865589,0.8692289138047714
430,1.1622612183393979,0.9582666813404922,0.8542023962986756
431,1.1528813837986587,0.9414360539312392,0.8535853661144026
432,1.135202802211235,0.9393805092041492,0.8496246504994033
433,1.1433142842456088,0.9176780238581795,0.849685333443539
434,1.1433313528188491,0.9386395575907467,0.8404704098593633
435,1.1730293977139927,0.9247644801552076,0.838731736043247
436,1.1889859206723483,0.9352994720647659,0.815056335465718
437,1.1768010133747702,0.9440187563154256,0.8318981720327621
438,1.1880454541615089,0.9960498603116505,0.8398589985983267
439,1.20745895489831,0.9774209713519629,0.8422974356033348
440,1.2221096960685933,0.9748836049392354,0.8207354054787862
441,1.1996168381040724,0.9552858581233288,0.8159350866036094
442,1.174850343067624,0.9432458768726981,0.8376039032831882
443,1.1921172007679253,0.9422737273234139,0.8375147797958019
444,1.1777066753743528,0.9662927124238703,0.8254574007359979
445,1.1387058373732901,0.9703729311563757,0.8326967386619852
446,1.1380376720256273,0.9459362377420727,0.8674560519596772
447,1.1628940226984394,0.9535563296595206,0.8721475591819853
448,1.1557004489303009,0.9608041445281259,0.8601590354897385
449,1.1298319568084083,0.9226199000941543,0.8671226632091742
450,1.1144999040427768,0.9013700983412845,0.8795269091750977
451,1.1311949592115091,0.8832344614540538,0.8856912141799039
452,1.1284245512759836,0.8840416194084804,0.891406823497968
453,1.1407356932234867,0.9191045940831544,0.8913793459172978
454,1.1579000197790728,0.9155187602308402,0.898406164096877
455,1.146110471913337,0.9028809847511317,0.8966192963487267
456,1.1694650769166193,0.9104724958748177,0.9160032175561124
457,1.1866712144340792,0.9374279513910669,0.9060625388659295
458,1.183573929395103,0.9359928951579942,0.9108868043513821
459,1.1906051777464668,0.9284369736286416,0.9301585037800852
460,1.1997787754151408,0.9163632797772693,0.9224111318163938
461,1.1989694006908778,0.930132630593699,0.9135072823559781
462,1.1908504939718543,0.9157547257769239,0.9110833133262534
463,1.1623547669601204,0.9180134368112932,0.9116300585808814
464,1.1591872706865556,0.9303426260259491,0.9201472836475194
465,1.180509549382002,0.9349006830960459,0.889949241567893
466,1.1419881812166848,0.9348483754066363,0.8936195272245385
467,1.1476718534104446,0.9345224553431555,0.9223435378079045
468,1.1645321661595867,0.9326957695039249,0.926442561125376
469,1.1852158487154913,0.9263785127917024,0.9248550234501374
470,1.1946285614880217,0.9047006168929571,0.9331374231762847
471,1.2138574532369657,0.9129888287688591,0.932565946479979
472,1.229256545017683,0.9353180713667342,0.9302262035723334
473,1.2477284948118421,0.9212068429044308,0.9187566617691365
474,1.2247496541310334,0.940228651526115,0.9049276684176834
475,1.210235602774681,0.9066192924264046,0.9094287577951191
476,1.2096450186033687,0.9067668900452015,0.9074303549130497
477,1.221217860263243,0.8984478680750402,0.9380354286188882
478,1.2384350871533962,0.9313314658971072,0.9355625661063908
479,1.2032337135992848,0.9226669740092213,0.9511893355354607
480,1.190991178243245,0.8978941782666457,0.9625912241358766
481,1.1959577581720018,0.867107782668731,0.9753253151564265
482,1.2085019736734741,0.8463222859362932,0.9589044942551131
483,1.1792580337793648,0.8625911642408896,0.9501207311563803
484,1.1651214176570635,0.8602473217328599,0.9917465014353034
485,1.182750091497212,0.8425793834075339,1.001449570535593
486,1.1901420306544732,0.8323758366807945,0.9816316031994388
487,1.1872262108931801,0.8293436299717051,0.9712611207383622
488,1.1901371838966803,0.8410168172228247,0.9643544382281982
489,1.19154711771402,0.7984719998101321,0.9575429063048265
490,1.20987698445112,0.7973753084393989,0.9414699872374772
491,1.1870934577645023,0.7971961872193375,0.9316143378798596
492,1.1737812024301102,0.8214408976986329,0.9230869049632526
493,1.1649443628708167,0.8438255499489576,0.9282229747449232
494,1.1620354589810686,0.8314602564325383,0.924301025690194
495,1.143819506557321,0.8282237567938296,0.9109706814535776
496,1.1151056033426008,0.8310463816911959,0.9254610000955359
497,1.1214911476723808,0.8195295459727698,0.9363721021160385
498,1.1359342998174247,0.8173142389573808,0.9259372363935926
499,1.1274351844742703,0.8120980046923102,0.9274561749025719
500,1.128780804608973,0.7909859060288922,0.9202614416822078
501,1.136994141473449,0.8045709060800037,0.9176201036201808
502,1.1368861927458458,0.7815610418050396,0.9342367037184341
503,1.1433693298851473,0.7888487228793194,0.9222905184205328
504,1.1458258834839328,0.7970609915581416,0.9290039416594146
505,1.1668865769461365,0.8175314193291859,0.942038567653982
506,1.1795588738938974,0.8009872922782183,0.9476897094549812
507,1.1856326271504305,0.804901461401795,0.9338764502319111
508,1.1610245601770668,0.8142333684948577,0.9202901711367174
509,1.1493316650279084,0.8043590115176424,0.9377444520089474
510,1.1753918654472824,0.8144689359734077,0.9343544583092626
511,1.1653441318050202,0.8331477482468588,0.9435774111944214
512,1.1629000367900084,0.8566039271215585,0.9496889317571675
513,1.1680174388768239,0.8610875411439047,0.9656378206795773
514,1.201891010770728,0.8628752178563186,0.9533253502200396
515,1.1810717861595528,0.8891280369565921,0.9267535210742656
516,1.1804417015092186,0.8786170739490554,0.9616096283093338
517,1.2043253470668767,0.8716436576701287,0.9478859823190173
518,1.1882546063665183,0.8932557602807917,0.9620697628570196
519,1.20469376836831,0.8820325299376165,0.9586607453335424
520,1.17532227046672,0.8876124823049506,0.9407704463896202
521,1.1735650035951732,0.8897461966681219,0.9427957579098379
522,1.165742075213752,0.8783316365106453,0.94600117940775
523,1.1901212260438765,0.9034184197804793,0.9496745386650363
524,1.1935478905114114,0.8766806604530026,0.9280293969017807
525,1.1732163700251892,0.8602977481815182,0.946789028127989
526,1.1954306699737025,0.8712444025321129,0.9597747778811914
527,1.2246824392721078,0.8749229287109453,0.9644912576295597
528,1.2438526067928832,0.8798094897506242,0.9420808879896316
529,1.2222191343875606,0.8844091477557624,0.9554827917005639
530,1.2278945443824096,0.8610856007808922,0.9416726692395986
531,1.2283170324812243,0.8696705607783554,0.9359373168149622
532,1.1996716576414725,0.8467516823756666,0.9302627615082479
533,1.1815403268697429,0.8199732655397721,0.9400926246876874
534,1.1869954552099993,0.8147967614087662,0.9497104092686488
535,1.208885471930526,0.8133758421137489,0.943160629703672
536,1.2319741032861828,0.8284457792145495,0.9354397864233767
537,1.2423961399574788,0.8657443629850538,0.9097729859327598
538,1.2115648369628629,0.9017722031861328,0.9098426698605037
539,1.2220760368245003,0.9229288596879025,0.9095767592220518
540,1.2392846500640198,0.9291656780930249,0.9001497079630301
541,1.2302348436812978,0.9192483005328445,0.8758644095840289
542,1.2207053072407337,0.8780195916040492,0.8770721509458074
543,1.2164281480715522,0.8679792121486658,0.8816631556708173
544,1.2136914634084899,0.8688918364662603,0.8887885519882781
545,1.2178822212546132,0.8614650702048049,0.8901090834978765
546,1.1884360753688599,0.8622205150153697,0.8920267978093185
547,1.1821885824737666,0.8308108185493763,0.889064206330804
548,1.1706351165899807,0.8318837145208327,0.8874421611350964
549,1.1841410400256305,0.8424502283208632,0.8970545370358699
550,1.1861815495074424,0.8301086430941034,0.9003323293054288
551,1.2199206316527662,0.8242965467619854,0.9040540346467996
552,1.2391834330579243,0.8266813420491389,0.8990123269923128
553,1.173137939212103,0.8158836201797016,0.9083257654168337
554,1.1790118199451525,0.8138041513429211,0.9529452845794196
555,1.2190879935548227,0.8093624000859427,0.9466819892469003
556,1.2240922163208245,0.8156295477997434,0.9395592768543035
557,1.2465390313272802,0.8210903340815647,0.9289666213065091
558,1.2177015282442518,0.8144098674433669,0.9301525672931406
559,1.2056339977121198,0.8076365705541231,0.9474276072883943
560,1.2220719339934933,0.7740140655288693,0.9923580946248696
561,1.2440431051579413,0.7950258718498481,0.9707799872014184
562,1.2219689155643032,0.8059730473734859,0.9675195601304403
563,1.2088244624037463,0.7950432654750336,0.9486056564599246
564,1.1985949228837793,0.8003000943504923,0.9358995970412023
565,1.189270222143422,0.7882544359326958,0.9327863018320267
566,1.178837852510104,0.772360163260367,0.9338795906491395
567,1.1840292744240408,0.7745341749027074,0.9390476572734665
568,1.1917216363412908,0.7796722856784296,0.9247159109437499
569,1.2123592945269916,0.7794769921074386,0.9507472124220862
570,1.2418607994225475,0.7823234075068368,0.9555299325192058
571,1.2365796382866376,0.7996415473196244,0.9543536248033024
572,1.2437958079373443,0.8158805657772631,0.9438347133732448
573,1.2354801401212523,0.8010973985462664,0.936209099430662
574,1.2605772189431461,0.7862725753509251,0.939365615462154
575,1.2701861867458453,0.8035218411393332,0.9307299221839327
576,1.265755635685047,0.8050074939399157,0.9100376680682437
577,1.2342423229457027,0.799775164841917,0.9201559647869499
578,1.2341444857437829,0.8180195262615637,0.9254519725242507
579,1.2281593251756724,0.7917158735781987,0.9349621369767014
580,1.2078475740351378,0.815072781658467,0.9529036810238479
581,1.2075245954036995,0.7823783348887984,0.9752155061297644
582,1.2068176275476035,0.7698217828671409,0.9817150397454631
583,1.2083029092155302,0.7737419668059671,0.9732479240360875
584,1.2086406801142209,0.7881673566839693,0.9811037303085391
585,1.2138380563403557,0.8170737951234182,0.9912112433041491
586,1.2422537123217547,0.8022991103899318,0.9828670928483013
587,1.2128466431368496,0.8117012960730736,0.9875682582397632
588,1.229365691520332,0.787672129482513,1.0030036784093814
589,1.2302516484659722,0.7665343006265161,1.0179430037937378
590,1.2467299973871249,0.7721750722330143,0.9971411154800195
591,1.2192091731090253,0.7547089269842548,1.0045789937676262
592,1.232417625534482,0.7355966751480811,1.0242482101361383
593,1.238577830016134,0.7229624923038236,1.0217448850904156
594,1.228584207895188,0.7109145350460796,1.0174976846480792
595,1.2274807018841982,0.7004201298475832,1.0313620337005989
596,1.221296783320633,0.6734010071502511,1.0331684465043653
597,1.2230212033213872,0.6657748121981929,1.0499422251690391
598,1.2071761684523667,0.658137452576101,1.050217481549661
599,1.1907167692644383,0.6729711468676361,1.075216617746222
600,1.2154916769890332,0.6671018230883983,1.066808796241908
601,1.243081810624401,0.6923195486014213,1.0515877404629483
602,1.210121687033712,0.6759840931898343,1.0657753102598087
603,1.2125864439983716,0.665056667285184,1.0914092913118005
604,1.2181631283534142,0.6752030060248715,1.1035884013541166
605,1.2064381517909806,0.6899449370136279,1.1179010524953754
606,1.2339621296678451,0.6927934530404349,1.1063012482374401
607,1.2238886895957424,0.7292398742839883,1.1050141347270428
608,1.2251848456108942,0.7413266219278404,1.083354719026238
609,1.2027611561418161,0.7655103718724865,1.0801646890699745
610,1.1907252985392252,0.7733229985231126,1.1063857077265458
611,1.1899368635299312,0.7967125919253193,1.1090338653314298
612,1.1833766466363798,0.7982332026227648,1.1173784062044188
613,1.1690869780454631,0.784119827198095,1.12428517273403
614,1.1597911637752902,0.770544332118513,1.1300407837660695
615,1.1810826766713425,0.7749345314046233,1.143962533215441
616,1.1883172956825927,0.7964120187544613,1.1546422356102837
617,1.1943591007214105,0.7941785610144255,1.1501767588661398
618,1.1947084411288396,0.7828527558964045,1.1540101708504455
619,1.2039013932870295,0.8065279019407521,1.138050851000499
620,1.207026541467984,0.8234406033547734,1.1340843735132518
621,1.1912779346825968,0.8347879547218368,1.1122109923713543
622,1.2029985232228004,0.8283317382609231,1.0985710736388303
623,1.2056260743404634,0.8427123401190819,1.1055273063543394
624,1.20294968657582,0.8420249296356842,1.1167456843351269
625,1.1833514689935727,0.8328783184714442,1.1120751310486607
626,1.1764066447452246,0.8089725773543498,1.1152448368390586
627,1.1748780952132247,0.8100357478252562,1.1164759229416168
628,1.1926759998672534,0.804329028489643,1.1253435785395263
629,1.2051645550661005,0.8294730584317288,1.0967655712444018
630,1.1907363026034978,0.838233009118978,1.0839658585715803
631,1.174037265265693,0.8260462665355428,1.0886155825716681
632,1.1810006851009849,0.8329989943828706,1.0706353181660015
633,1.1794236725647762,0.8465637312429829,1.1100446879161596
634,1.1961220797592473,0.8664556391361579,1.1193927243681099
635,1.2020446849559392,0.8734330966636575,1.1274200268758376
636,1.1961407060653775,0.8702362110880953,1.133335130548699
637,1.2100601921700442,0.8746819753903048,1.1159467620975376
638,1.2218673054145943,0.9090917798054562,1.1126071393059898
639,1.226567320162396,0.9379475290486762,1.1013249480174903
640,1.2107215439479904,0.9258840265737323,1.110539968821725
641,1.2089875416124527,0.9285236614594473,1.1226184023472914
642,1.1910315101595883,0.9409578765284816,1.0870377888741594
643,1.1879997656308499,0.923774798023493,1.0965472016546032
644,1.1942112254404937,0.8998404567842133,1.0873167727062636
645,1.1810224251100658,0.8941379524559304,1.1288904292854411
646,1.2170596843063044,0.8751363302017277,1.1326146262788481
647,1.1907112324624716,0.8911395245573447,1.0929897710575767
648,1.1861701991710267,0.8733840167644921,1.1079872829659012
649,1.1896648822946525,0.882143123747411,1.1129423430559056
650,1.1896964043586646,0.8949713685648452,1.1101487035961826
651,1.201963995929854,0.9025621822059723,1.071907689990539
652,1.1685483651352215,0.9144655434839174,1.0651342260022099
653,1.141230675770666,0.8564632817129164,1.0757830339565522
654,1.1307195445463682,0.828601271773042,1.0825942449864039
655,1.1133730633801027,0.8302951852222588,1.0905601141849084
656,1.1270422006084428,0.8127671660835531,1.0834040957831554
657,1.079090022967131,0.8225881277213409,1.1015080271676598
658,1.0881275385183637,0.812652806625307,1.1204258275278778
659,1.072809421409457,0.8000756055921202,1.1312644857729792
660,1.0759443431666194,0.7978477822037071,1.1382303510349308
661,1.0804995899775385,0.8079597096699196,1.1638177044901892
662,1.108326632630346,0.8016153485958875,1.1806076932533593
663,1.1272494258037062,0.8256248060416531,1.1956730536295732
664,1.1227312290074227,0.8584615243901719,1.1845742715503897
665,1.1065410605698287,0.8773298500467647,1.1676397052117773
666,1.1051792332954946,0.8544775963483017,1.1765119284046326
667,1.1272691004343052,0.8411020193328022,1.1814068090820073
668,1.1392302277587827,0.839621248966061,1.1741495512825755
669,1.1467675688276675,0.8570166272256053,1.1772149709575839
670,1.1717436726627428,0.8705895151756508,1.1693508991023667
671,1.1742349703088981,0.8438202361061361,1.1569539584273185
672,1.1753782763308247,0.8284118661064991,1.1348722418046628
673,1.1797212670050903,0.8216213487292112,1.156174527173701
674,1.2123267266611557,0.8505640923778471,1.1667483595915211
675,1.2357072423965791,0.8636987822086925,1.1653900198972242
676,1.2627831391718591,0.852246186285843,1.1518755863765664
677,1.272002230698976,0.8575912082094492,1.164593852482906
678,1.2537830152616303,0.8972443745831504,1.1851394534786623
679,1.248172954636397,0.8734519166062086,1.2169471820931732
680,1.272127132489317,0.8848775000233456,1.232399919492287
681,1.2738778154665913,0.9033815201337749,1.2324313145341723
682,1.2379080125383488,0.8627882854710038,1.2538161213686334
683,1.2294001539656856,0.8566653368362022,1.2839263616444634
684,1.2545823210648788,0.8429278386783686,1.2683008523830226
685,1.2336962206142694,0.8533458524656959,1.253029767375771
686,1.2438333591791462,0.8223071806540029,1.2676832297356844
687,1.262340653264452,0.8163666201961202,1.2667153970960765
688,1.2485116386887314,0.823893621207986,1.2661841264947162
689,1.222045498314241,0.827530411347302,1.266241900976685
690,1.227128159286286,0.806297318063629,1.2713042027285064
691,1.25629648979288,0.8062037170886861,1.2608141306850988
692,1.2507962830069952,0.847623196377399,1.252692712307572
693,1.2435052557520772,0.858558736944458,1.247733208311139
694,1.2640212222907168,0.8893032150268683,1.2456962877693283
695,1.2761882243069258,0.9074613969334272,1.242240789410767
696,1.257467490664957,0.9020928434122356,1.25558493909011
697,1.2606501797461973,0.8907629331249736,1.2674855502480429
698,1.264722753461029,0.8805203305221473,1.2559720383820128
699,1.246221956245525,0.874214815545573,1.233619245372861
700,1.252216583369,0.8631036892734502,1.2460592000580186
701,1.2564891499516646,0.8582798966165799,1.249447728678304
702,1.2761579588473286,0.863744853612538,1.2700497865017952
703,1.2821535682354517,0.8737731633285872,1.2717791311469857
704,1.2784222517242299,0.8812264484755256,1.2787249802104617
705,1.2919954970317313,0.8698344667183172,1.274932509139041
706,1.2600893027057216,0.8851610187890974,1.2764491207357969
707,1.2439615717320094,0.901947604579923,1.317283175511009
708,1.2562119422719729,0.9214000302375828,1.3089602158249094
709,1.2665161448062578,0.944446235496232,1.3393549800792657
710,1.3033295320175902,0.9059164631355141,1.331211475656001
711,1.2885330939510526,0.9389867487570294,1.2840189969962843
712,1.2614307031839511,0.930930106258975,1.2865607655209728
713,1.2858119785111255,0.9100743475841534,1.3156212472508189
714,1.2807165693295857,0.9068945142386166,1.3132397622121201
715,1.3051873951068282,0.9101697654380705,1.3269464009830314
716,1.296390315291225,0.9379052378316441,1.3081712932463363
717,1.2946573515460817,0.9406188714323463,1.3112111920886342
718,1.2864986486164713,0.9194201441238479,1.2927484416752024
719,1.2701797425149484,0.9066283672551173,1.309693340092194
720,1.2828357795580492,0.9075331561761971,1.341384911757697
721,1.2884229551841409,0.8996994957093724,1.3131246370021856
722,1.2645006548740871,0.9068744047942376,1.3567357574954206
723,1.2974749679296085,0.876942257668748,1.3582538002562212
724,1.3037139851532236,0.90394655170821,1.3507404723001164
725,1.3497588012436337,0.9357935164823106,1.381976271594844
726,1.3918051101495144,0.9680758480664203,1.334172851846696
727,1.3685330918196401,0.9694054642915594,1.3214104677948149
728,1.3700145405128208,0.9925772786698412,1.3465069014039257
729,1.3765603885592943,1.0426749331491312,1.3530137337471102
730,1.3763553429986322,1.0517481694602315,1.3927177036188116
731,1.4029814637173328,1.0594306021119948,1.3848613796815945
732,1.36754226919304,1.0552885877314604,1.362947859975602
733,1.3544564092813938,1.0802433409984826,1.380349331226914
734,1.3609339378212995,1.05577113909509,1.3964235939833252
735,1.3910058746504235,1.0828497906854144,1.359388864608986
736,1.3847508012132943,1.1426760959001003,1.3929204615740052
737,1.4157898616284834,1.1362804328092986,1.3854924234598072
738,1.404227003136361,1.1764423411820453,1.356325320176525
739,1.3838891104920392,1.1679400918345821,1.3490307681218832
740,1.3854245411603836,1.1521129647154322,1.371858702962142
741,1.3992314258059295,1.153261464214672,1.3882528453797183
742,1.3871349096598315,1.1573260355124684,1.3844880644159596
743,1.3938306961578986,1.1562611630337838,1.3777679092935495
744,1.3589914707579651,1.1812352301332432,1.3739768618115291
745,1.3711525528270891,1.1718473578564628,1.382023402269557
746,1.3709888733656805,1.218154285469636,1.3717216457184136
747,1.3904841620496282,1.1974329347642063,1.3845944823376042
748,1.3752658345920543,1.1936722886708857,1.3738790061483241
749,1.3545020979934468,1.1787508673202844,1.3539223475354736
750,1.355394845172966,1.149168976311717,1.3383040576361134
751,1.368374902387182,1.1210491609937423,1.3886115430484245
752,1.3990464233458841,1.1414052055263042,1.3732521919937806
753,1.3629230040401927,1.1820789714548772,1.3625999310894903
754,1.3347112928749987,1.1706071918220011,1.3503351270426507
755,1.303661305769428,1.1714851436743035,1.3629753454269076
756,1.2902727529217382,1.1661521920008016,1.358676405928132
757,1.2923811448151812,1.1473213499538886,1.3855613521814623
758,1.3155141128831582,1.1213034183758641,1.3751559531265716
759,1.328277690892203,1.1348957801304684,1.3712575608817614
760,1.326909072507963,1.1567339815410211,1.3320160970635784
761,1.3063585033452165,1.1230224090138552,1.3291182612799486
762,1.3194908801250718,1.0905238315509778,1.3417403539794506
763,1.331286883928738,1.0950188051989407,1.3255007241346966
764,1.3272888181406801,1.1018350689769005,1.336528896507913
765,1.3412844088107765,1.1195376942721786,1.303224900463908
766,1.3181941373796393,1.1294814767246706,1.2918751844914176
767,1.3002758679933817,1.0927591361566849,1.2803767036929665
768,1.295071029216293,1.085377710079216,1.274258099819701
769,1.2985693208888744,1.0911784370232895,1.2722731787046608
770,1.3115365448626337,1.076702203116605,1.277349391096464
771,1.337526097717789,1.0744365334912611,1.2953113251744415
772,1.3470831426683394,1.0769737468245488,1.2496407709835466
773,1.332995509815717,1.0841096814919517,1.2781005224546769
774,1.358702105949965,1.0557652217707225,1.3346416630699203
775,1.3821299136837464,1.095127429151617,1.3437283377614526
776,1.4038828600971112,1.1060253040608063,1.3215398173958366
777,1.38100170655874,1.0862106628878583,1.3066660615400092
778,1.3865358252905815,1.066105221786674,1.3089125000601316
779,1.3877298974586525,1.0497027262389382,1.3371724270252965
780,1.3900424668310385,1.0477793975829044,1.3578981120201625
781,1.3868734006857075,1.0456025250698515,1.341013105133468
782,1.3628928356722618,1.0484056176922734,1.3137193614161788
783,1.3398223308544739,1.0361480056602856,1.3703875548369833
784,1.348667934623163,1.0273818527949818,1.4038406940826529
785,1.3704600144851835,1.0303286421735032,1.4111659592104242
786,1.3512987103060548,1.0184813612658796,1.4071102591842992
787,1.3180825117389632,0.9937889034202417,1.4195910695357923
788,1.3406545514362618,1.0140438637095328,1.4737916284922594
789,1.3585247327136187,1.0389442643235303,1.420986034643833
790,1.292637750170015,1.0330670870390328,1.4351441024916687
791,1.3070245382306995,0.9981248680844909,1.5002173369560459
792,1.3092655998189162,1.0422531095071348,1.4942490161232802
793,1.295910794326514,1.0303515601513271,1.4818096515669745
794,1.2833969837398325,1.031464065587569,1.5116425005189258
795,1.3032936396288815,1.0203214993292338,1.5025763226403548
796,1.32962996065986,1.0210478799895866,1.5439248220379775
797,1.352384930194797,1.0349730047645613,1.5327121598748947
798,1.3696387319970535,1.0574893989216227,1.509978505881172
799,1.3486759651763724,1.0854745673365405,1.5215095703652066
800,1.3325048763647793,1.034219063881865,1.5442954020565516
801,1.3141565971596103,1.0521631563972402,1.5482082181442325
802,1.3407571383402201,1.0490083431356443,1.551009084886597
803,1.3207215385081865,1.0396470647102087,1.541901359775232
804,1.3439597082767145,1.0506188987780793,1.5107484986169484
805,1.3256957098843902,1.037862094809298,1.4675343785907997
806,1.2867950235252765,1.0504833148700647,1.4965564016035433
807,1.30438521302166,1.0279194207106925,1.5163303750199744
808,1.35372580259273,1.0396533182282748,1.4889473678045022
809,1.3736148168836695,1.0550504873645254,1.462661144133435
810,1.3560777876486134,1.0353710819456199,1.456035024783934
811,1.3402237167678988,1.0125656172433786,1.4870255153913883
812,1.3581102979956454,0.9940042655174601,1.5173583506987502
813,1.3703553750398587,1.033780127309331,1.5266273104874406
814,1.3916068363236467,1.0218724903243706,1.4963489641347314
815,1.3695938493510065,1.0374440172238624,1.4941671605537483
816,1.366320341984295,1.0140598245338888,1.50884447347899
817,1.3761540060753137,0.9863066518253395,1.5147355535413152
818,1.3820349664608784,1.006972361811473,1.5029650977228834
819,1.3807946631731547,0.9994948859014073,1.521392940096897
820,1.3709346853474618,1.0296877798651964,1.5301829388189068
821,1.3911953501411745,1.0320915935660484,1.5166533142932828
822,1.4008347577692024,1.0443452755143223,1.5426742359867873
823,1.4024588854930853,1.0547194927917407,1.5595398910329141
824,1.4089071293346476,1.0858900292317937,1.520906207684097
825,1.4243894814245837,1.0975567717855685,1.4877665374316082
826,1.4093632101291762,1.0466744489047144,1.4896507532748164
827,1.3915309045345527,1.0717895378858127,1.4789560816304739
828,1.3715034578438896,1.0822099176964566,1.4618787798087112
829,1.3824777565039583,1.0712242589294365,1.4933728381859683
830,1.383643281994557,1.0613076425874988,1.5215453429785886
831,1.38317782783262,1.0498576383705522,1.5316467261120719
832,1.40359766368902,1.0347947372874282,1.5674100349868447
833,1.452690431665134,1.0392023280072105,1.517893027254929
834,1.452185433315009,1.0447238138501727,1.492170365709999
835,1.416916099767551,1.0499532603104231,1.4706131786986516
836,1.4601140303423916,1.0510455502082712,1.492543006471563
837,1.4979641676409376,1.071832202456634,1.481490743195566
838,1.4611730368241593,1.0641615542863394,1.4233709162392614
839,1.4430701376838386,1.0665113103367079,1.4613082940275801
840,1.4910285834330976,1.0530101211734715,1.4540234694638812
841,1.514178380910507,1.095216678947116,1.4064753573451805
842,1.4877774271038997,1.088848589442899,1.3828595163541149
843,1.4903168141638137,1.1060760233521298,1.3762418747713152
844,1.4748317367552253,1.0886498739160775,1.368337991905506
845,1.477426748681117,1.0652508340455307,1.4057667349937761
846,1.4817546222794375,1.0801543911251803,1.3978515494254908
847,1.5059554457191926,1.058718320404835,1.4202878149007456
848,1.5539584439038707,1.0644429644927054,1.387416040179714
849,1.5488226849085438,1.0860417670289713,1.3958324219832503
850,1.5082232024434366,1.0893274845977505,1.4058460325390394
851,1.5112839836325165,1.0836704702961246,1.388264999505668
852,1.5101730099838628,1.0806611829922592,1.3664943893726405
853,1.5288511390510489,1.098699695652288,1.3571919213599095
854,1.5511521524603964,1.0954651842148937,1.3267545204915463
855,1.5424933874570512,1.1150936436998493,1.324445271054195
856,1.5400640810042725,1.1497590124817967,1.3403313969912187
857,1.5634961595692147,1.1760406798728615,1.3510509351939346
858,1.5791952715618593,1.1734784883003002,1.3373616178566095
859,1.570250481598782,1.1411356404502002,1.3588883817286126
860,1.5864673281091728,1.1308291511545547,1.35070471007287
861,1.5963486591735216,1.14578196418381,1.3462347705728455
862,1.5703912155235975,1.1309421277370078,1.3418294322860225
863,1.565944861465899,1.1212474634254912,1.328480241817975
864,1.5507796584350826,1.1076782363737492,1.3224541007557393
865,1.5472858703628602,1.1588343484371366,1.3301694603879968
866,1.5462071312642804,1.1381590897143723,1.3184574258103616
867,1.5559733749155866,1.1192113080952355,1.302396133657789
868,1.5503916279344594,1.1252984663522083,1.2881311067215895
869,1.5247381533851483,1.1328740768016652,1.2734243002462198
870,1.478598257686265,1.1447384233457505,1.2668022409882818
871,1.4244653846458584,1.14710531274058,1.308109276991809
872,1.4332614000040975,1.1098230457778742,1.3353521498857075
873,1.4425878461547512,1.1325145728027624,1.289368685058682
874,1.4488044474513786,1.1688691304250185,1.2683479557688138
875,1.4562262338269452,1.1750723895034392,1.2504762604869266
876,1.4451744708350047,1.1228060307015608,1.233500180649843
877,1.453271632692186,1.1383002645666846,1.2508701974321992
878,1.4411581546680012,1.1055301404186402,1.2523661523710399
879,1.4399931488487445,1.1288637031192537,1.222755066835049
880,1.4316886675855027,1.1445108183504311,1.242057752114391
881,1.4539203546993553,1.1652664566666087,1.2295369424207352
882,1.4603707571334401,1.1734052345463417,1.2161805424008152
883,1.4424308716587653,1.1859833522776302,1.1988543346513822
884,1.455868894345472,1.1705020404700304,1.1914675836858801
885,1.4332600445836956,1.1717445064812917,1.2090456311378244
886,1.4285690650129306,1.1962653733835409,1.2197557913659363
887,1.428313728673965,1.2278405414422255,1.228486043829467
888,1.447972094766378,1.2575934505618838,1.2467479472670626
889,1.4709172868938443,1.2864811130286344,1.237010609033787
890,1.4368784448806655,1.2724650453095974,1.2477354054335148
891,1.4378263387349932,1.2958728614182704,1.278273299451991
892,1.4752933886382342,1.302855532209213,1.3031652278545334
893,1.5022460937258746,1.3127930209586485,1.3136545861986677
894,1.4995334781179261,1.295566810069523,1.3084649966455653
895,1.487084498206783,1.2432235518079389,1.324165390797488
896,1.532622567948916,1.2368341857359288,1.334401432867049
897,1.5310431024243607,1.2607828096797844,1.3210730856209645
898,1.5401666079424225,1.2778205241199436,1.3430117087384117
899,1.556033300320377,1.2453564325933646,1.3345272338132652
900,1.5803508138871842,1.261157178634743,1.2954017743318453
901,1.5432655759322444,1.2588033383228074,1.2690951338722474
902,1.5118582035691428,1.196148973555217,1.249684298848073
903,1.491010014146288,1.1813487040166804,1.236260891971663
904,1.4722320187806326,1.2162719337338626,1.2447311851782996
905,1.4566360741900486,1.2305656994747651,1.258450552362128
906,1.482362894215212,1.256690392551803,1.2566961472291631
907,1.4604970708266618,1.2740698969721664,1.2585327627347318
908,1.50030419304346,1.281427410243387,1.284237778633082
909,1.5133229026368789,1.2789056395773175,1.256640052555164
910,1.495664446345748,1.3190957683366578,1.2580307816571774
911,1.483337833573948,1.3506981780122345,1.262483679684262
912,1.4404031030009894,1.360435486151915,1.2894552085516335
913,1.4532685690911302,1.3229013997510644,1.2962374669417163
914,1.458969249662104,1.356072603964743,1.3117663236691206
915,1.4637756922325196,1.355403119547095,1.2899019287024485
916,1.425205537875605,1.3676868801109379,1.2980100699976838
917,1.428995458930977,1.3815762387911035,1.3062606425451846
918,1.423592707236422,1.341754283549996,1.3080147386859304
919,1.4171821215997356,1.3432171523030887,1.3490731126601014
920,1.4582884802001712,1.31675001163564,1.3647323213904134
921,1.48008945995943,1.3013112013818802,1.3630116485514143
922,1.472300535323362,1.2720340131484509,1.3667799360429025
923,1.4723782520716486,1.2710686920368466,1.3758908561932144
924,1.4931244534614447,1.2898921609408023,1.340393976356955
925,1.45203979772932,1.3221469945355349,1.3532451963734342
926,1.430134548155593,1.2527930082258223,1.3645299414013288
927,1.419900804251208,1.2679403723974956,1.345733752484831
928,1.4163879908716748,1.2934827603660715,1.3187626894467128
929,1.4083503740469892,1.3098365814992918,1.3107013169794068
930,1.4201509602223552,1.3107278348133564,1.3181778947135954
931,1.430994843966738,1.3377194177761105,1.2998286079680428
932,1.4196773579856037,1.3404427600114097,1.3063166804343465
933,1.4367417087176824,1.3801532905186409,1.2917128602080672
934,1.4326566986744418,1.4040958851269434,1.2851960626814327
935,1.4371367949938658,1.4159847239126526,1.2499533462471544
936,1.432828155538504,1.3822399701515162,1.2754768098659583
937,1.4660062261287425,1.4104639090325517,1.2704888059097894
938,1.4371001634239613,1.403613555829985,1.2878030806631628
939,1.4708241784187979,1.4459558199254967,1.3003579913414218
940,1.48766540505081,1.457000320186442,1.3076999752203877
941,1.4869497098969942,1.529032121653955,1.2960578535963605
942,1.4954943884863987,1.5885820890780098,1.3041858919397569
943,1.5040988155636839,1.5729825271084514,1.3124085843060997
944,1.5030219295932357,1.538184561578881,1.2882080882941105
945,1.4874179600191615,1.5131521396992142,1.2742049890781721
946,1.4755072379663314,1.4609671881352229,1.2666946904698522
947,1.4656611986303003,1.4352734412612196,1.2969015572669258
948,1.4932656305525094,1.4593844739240174,1.3265590673731238
949,1.5145539632037681,1.4375150941149137,1.302886170594566
950,1.488933406227912,1.4148725793294652,1.273892664044894
951,1.5003434212885076,1.3808597570939591,1.2795361865972625
952,1.5019304836202143,1.3694241208344298,1.2648461916224603
953,1.4962708405718046,1.3752247951978314,1.2613550070441373
954,1.4963010357607958,1.403872614469133,1.2418194082362763
955,1.4778027830807787,1.4321314299527077,1.2599153140200934
956,1.4773223411936218,1.4037589530903265,1.251861795247993
957,1.4485027518725315,1.4231438659381632,1.24371896791257
958,1.4447055637745005,1.3517659283987797,1.257670295683228
959,1.4699805355106443,1.330710270444321,1.2465989644520286
960,1.4589213978441298,1.3804493478392137,1.2246266953145508
961,1.4343631435723347,1.3421717336319698,1.250709508148044
962,1.4102978143125033,1.336752912872681,1.2691464381675819
963,1.3995942877883405,1.3203621109157726,1.2734803069396605
964,1.4101330285581137,1.3157143190532898,1.2925762662280964
965,1.3880762112925402,1.3021742165010346,1.281295921714547
966,1.4050903816517506,1.2981619816679466,1.2832182154289973
967,1.3867717642732258,1.3074301432146311,1.2516306142961382
968,1.3419634255636823,1.3154044002945624,1.260588060057419
969,1.3465627510366394,1.3093973049927599,1.284652076404804
970,1.3657827538580292,1.3504917470781899,1.2866833060392437
971,1.3762775672100627,1.3540432064332337,1.2649019857411101
972,1.3825185733817895,1.3680910136881008,1.2699074331662488
973,1.374805389899681,1.363216081968821,1.223983732248439
974,1.358563196262663,1.3944794895585548,1.2061534987047242
975,1.3402402816717085,1.408563882426954,1.2149787198955795
976,1.3231964118422253,1.3936476873566814,1.2266442663048485
977,1.3337610733941692,1.339872896970933,1.247733667050606
978,1.3221698517979061,1.36502879697952,1.2401078945187298
979,1.3253614670621738,1.391652965642081,1.2757331163172847
980,1.3386046853036881,1.42569104915067,1.2667472512102969
981,1.3459873599004741,1.441622013511004,1.282883218910399
982,1.359521410384403,1.4744655702166087,1.2739283114372617
983,1.3227937787199737,1.4874724673952584,1.2452587966770015
984,1.276810923442506,1.48127374545661,1.2899439497760152
985,1.2877811985718182,1.44992981263615,1.2980245067202432
986,1.3119095419282096,1.464998341687392,1.2804265425467138
987,1.2851522103383284,1.4910629940892495,1.2787098065821447
988,1.24730622364817,1.4731504252285188,1.2966404523729171
989,1.2569911210907063,1.42085865127534,1.3214391053212027
990,1.289109250489809,1.4519125402508481,1.3005242210433532
991,1.273234277972412,1.4932783331853017,1.3440111834615949
992,1.3005224813595682,1.5087005277069085,1.3411019355340568
993,1.30177320918103,1.5949485122232148,1.3456595914402971
994,1.3039735900050995,1.615521997038315,1.3282430013689908
995,1.3077375396540734,1.6344567334921676,1.330593623751268
996,1.30927290671175,1.6443009285192973,1.3633020233551578
997,1.346092686119006,1.6321036278378398,1.3482456989092595
998,1.3188162066482543,1.669019851508213,1.324827734878216
999,1.312935421132555,1.593881558275295,1.3682357743652696
1000,1.3326806839914773,1.5484948482029575,1.3820119964079056